%YAML 1.1
%TAG !u! tag:unity3d.com,2011:
--- !u!1001 &1516890330402235886
PrefabInstance:
  m_ObjectHideFlags: 0
  serializedVersion: 2
  m_Modification:
    m_TransformParent: {fileID: 0}
    m_Modifications:
    - target: {fileID: -927199367670048503, guid: 01ddb080233ef3f4d9eced34a42f6bd9,
        type: 3}
      propertyPath: m_Name
      value: peluche_v2
      objectReference: {fileID: 0}
    - target: {fileID: -4216859302048453862, guid: 01ddb080233ef3f4d9eced34a42f6bd9,
        type: 3}
      propertyPath: m_LocalPosition.x
      value: -0.0051061967
      objectReference: {fileID: 0}
    - target: {fileID: -4216859302048453862, guid: 01ddb080233ef3f4d9eced34a42f6bd9,
        type: 3}
      propertyPath: m_LocalPosition.y
      value: 0.026441803
      objectReference: {fileID: 0}
    - target: {fileID: -4216859302048453862, guid: 01ddb080233ef3f4d9eced34a42f6bd9,
        type: 3}
      propertyPath: m_LocalPosition.z
      value: -0.11166164
      objectReference: {fileID: 0}
    - target: {fileID: -4216859302048453862, guid: 01ddb080233ef3f4d9eced34a42f6bd9,
        type: 3}
      propertyPath: m_LocalRotation.x
      value: 0.000000015454312
      objectReference: {fileID: 0}
    - target: {fileID: -4216859302048453862, guid: 01ddb080233ef3f4d9eced34a42f6bd9,
        type: 3}
      propertyPath: m_LocalRotation.y
      value: -0.7071068
      objectReference: {fileID: 0}
    - target: {fileID: -4216859302048453862, guid: 01ddb080233ef3f4d9eced34a42f6bd9,
        type: 3}
      propertyPath: m_LocalRotation.z
      value: 0.000000015454312
      objectReference: {fileID: 0}
    - target: {fileID: -4216859302048453862, guid: 01ddb080233ef3f4d9eced34a42f6bd9,
        type: 3}
      propertyPath: m_LocalRotation.w
      value: 0.7071068
      objectReference: {fileID: 0}
    - target: {fileID: -4216859302048453862, guid: 01ddb080233ef3f4d9eced34a42f6bd9,
        type: 3}
      propertyPath: m_RootOrder
      value: 0
      objectReference: {fileID: 0}
    - target: {fileID: -4216859302048453862, guid: 01ddb080233ef3f4d9eced34a42f6bd9,
        type: 3}
      propertyPath: m_LocalEulerAnglesHint.x
      value: 0
      objectReference: {fileID: 0}
    - target: {fileID: -4216859302048453862, guid: 01ddb080233ef3f4d9eced34a42f6bd9,
        type: 3}
      propertyPath: m_LocalEulerAnglesHint.y
      value: 0
      objectReference: {fileID: 0}
    - target: {fileID: -4216859302048453862, guid: 01ddb080233ef3f4d9eced34a42f6bd9,
        type: 3}
      propertyPath: m_LocalEulerAnglesHint.z
      value: 0
      objectReference: {fileID: 0}
    - target: {fileID: -1504981713932161579, guid: 01ddb080233ef3f4d9eced34a42f6bd9,
        type: 3}
      propertyPath: m_Materials.Array.data[0]
      value: 
      objectReference: {fileID: 2100000, guid: 3bfc8b936fb158843bd3b66fcf7042b5, type: 2}
    m_RemovedComponents: []
  m_SourcePrefab: {fileID: 100100000, guid: 01ddb080233ef3f4d9eced34a42f6bd9, type: 3}
